timestamp,count
2022-02-13T10:51:00+01:00,0
2022-02-13T10:52:00+01:00,0
2022-02-13T10:53:00+01:00,0
2022-02-13T10:54:00+01:00,0
2022-02-13T10:55:00+01:00,0
2022-02-13T10:56:00+01:00,0
2022-02-13T10:57:00+01:00,0
2022-02-13T10:58:00+01:00,0
2022-02-13T10:59:00+01:00,0
2022-02-13T11:00:00+01:00,0
2022-02-13T11:01:00+01:00,0
2022-02-13T11:02:00+01:00,0
2022-02-13T11:03:00+01:00,0
2022-02-13T11:04:00+01:00,1
2022-02-13T11:05:00+01:00,1
2022-02-13T11:06:00+01:00,1
2022-02-13T11:07:00+01:00,2
2022-02-13T11:08:00+01:00,2
2022-02-13T11:09:00+01:00,3
2022-02-13T11:10:00+01:00,3
2022-02-13T11:11:00+01:00,3
2022-02-13T11:12:00+01:00,4
2022-02-13T11:13:00+01:00,3
2022-02-13T11:14:00+01:00,3
2022-02-13T11:15:00+01:00,4
2022-02-13T11:16:00+01:00,4
2022-02-13T11:17:00+01:00,5
2022-02-13T11:18:00+01:00,3
2022-02-13T11:19:00+01:00,4
2022-02-13T11:20:00+01:00,5
2022-02-13T11:21:00+01:00,5
2022-02-13T11:22:00+01:00,5
2022-02-13T11:23:00+01:00,3
2022-02-13T11:24:00+01:00,4
2022-02-13T11:25:00+01:00,5
2022-02-13T11:26:00+01:00,5
2022-02-13T11:27:00+01:00,5
2022-02-13T11:28:00+01:00,3
2022-02-13T11:29:00+01:00,4
2022-02-13T11:30:00+01:00,4
2022-02-13T11:31:00+01:00,5
2022-02-13T11:32:00+01:00,5
2022-02-13T11:33:00+01:00,3
2022-02-13T11:34:00+01:00,4
2022-02-13T11:35:00+01:00,4
2022-02-13T11:36:00+01:00,5
2022-02-13T11:37:00+01:00,5
2022-02-13T11:38:00+01:00,4
2022-02-13T11:39:00+01:00,5
2022-02-13T11:40:00+01:00,5
2022-02-13T11:41:00+01:00,6
2022-02-13T11:42:00+01:00,6
2022-02-13T11:43:00+01:00,4
2022-02-13T11:44:00+01:00,5
2022-02-13T11:45:00+01:00,5
2022-02-13T11:46:00+01:00,6
2022-02-13T11:47:00+01:00,6
2022-02-13T11:48:00+01:00,4
2022-02-13T11:49:00+01:00,4
2022-02-13T11:50:00+01:00,5
2022-02-13T11:51:00+01:00,5
2022-02-13T11:52:00+01:00,6
2022-02-13T11:53:00+01:00,3
2022-02-13T11:54:00+01:00,5
2022-02-13T11:55:00+01:00,6
2022-02-13T11:56:00+01:00,6
2022-02-13T11:57:00+01:00,7
2022-02-13T11:58:00+01:00,4
2022-02-13T11:59:00+01:00,6
2022-02-13T12:00:00+01:00,7
2022-02-13T12:01:00+01:00,7
2022-02-13T12:02:00+01:00,8
2022-02-13T12:03:00+01:00,4
2022-02-13T12:04:00+01:00,6
2022-02-13T12:05:00+01:00,7
2022-02-13T12:06:00+01:00,7
2022-02-13T12:07:00+01:00,8
2022-02-13T12:08:00+01:00,4
2022-02-13T12:09:00+01:00,6
2022-02-13T12:10:00+01:00,6
2022-02-13T12:11:00+01:00,6
2022-02-13T12:12:00+01:00,6
2022-02-13T12:13:00+01:00,2
2022-02-13T12:14:00+01:00,5
2022-02-13T12:15:00+01:00,5
2022-02-13T12:16:00+01:00,5
2022-02-13T12:17:00+01:00,5
2022-02-13T12:18:00+01:00,3
2022-02-13T12:19:00+01:00,5
2022-02-13T12:20:00+01:00,5
2022-02-13T12:21:00+01:00,5
2022-02-13T12:22:00+01:00,5
2022-02-13T12:23:00+01:00,2
2022-02-13T12:24:00+01:00,3
2022-02-13T12:25:00+01:00,4
2022-02-13T12:26:00+01:00,4
2022-02-13T12:27:00+01:00,4
2022-02-13T12:28:00+01:00,2
2022-02-13T12:29:00+01:00,2
2022-02-13T12:30:00+01:00,3
2022-02-13T12:31:00+01:00,4
2022-02-13T12:32:00+01:00,4
2022-02-13T12:33:00+01:00,2
2022-02-13T12:34:00+01:00,2
2022-02-13T12:35:00+01:00,3
2022-02-13T12:36:00+01:00,4
2022-02-13T12:37:00+01:00,4
2022-02-13T12:38:00+01:00,2
2022-02-13T12:39:00+01:00,2
2022-02-13T12:40:00+01:00,3
2022-02-13T12:41:00+01:00,4
2022-02-13T12:42:00+01:00,4
2022-02-13T12:43:00+01:00,2
2022-02-13T12:44:00+01:00,2
2022-02-13T12:45:00+01:00,3
2022-02-13T12:46:00+01:00,4
2022-02-13T12:47:00+01:00,4
2022-02-13T12:48:00+01:00,2
2022-02-13T12:49:00+01:00,2
2022-02-13T12:50:00+01:00,3
2022-02-13T12:51:00+01:00,3
2022-02-13T12:52:00+01:00,4
2022-02-13T12:53:00+01:00,2
2022-02-13T12:54:00+01:00,2
2022-02-13T12:55:00+01:00,2
2022-02-13T12:56:00+01:00,3
2022-02-13T12:57:00+01:00,4
2022-02-13T12:58:00+01:00,2
2022-02-13T12:59:00+01:00,2
2022-02-13T13:00:00+01:00,2
2022-02-13T13:01:00+01:00,3
2022-02-13T13:02:00+01:00,4
2022-02-13T13:03:00+01:00,2
2022-02-13T13:04:00+01:00,2
2022-02-13T13:05:00+01:00,2
2022-02-13T13:06:00+01:00,3
2022-02-13T13:07:00+01:00,4
2022-02-13T13:08:00+01:00,2
2022-02-13T13:09:00+01:00,2
2022-02-13T13:10:00+01:00,2
2022-02-13T13:11:00+01:00,3
2022-02-13T13:12:00+01:00,4
2022-02-13T13:13:00+01:00,2
2022-02-13T13:14:00+01:00,2
2022-02-13T13:15:00+01:00,2
2022-02-13T13:16:00+01:00,3
2022-02-13T13:17:00+01:00,4
